<svg width="1920" height="88" viewBox="0 0 1920 88" fill="none" xmlns="http://www.w3.org/2000/svg">
<mask id="mask0" mask-type="alpha" maskUnits="userSpaceOnUse" x="0" y="0" width="1920" height="88">
<rect width="1920" height="88" fill="#68C2DE"/>
</mask>
<g mask="url(#mask0)">
<rect x="-71" width="1991" height="88" fill="#68C2DE"/>
<path d="M1200 44H1270L1341 88H1271L1200 44Z" fill="#CC5842"/>
<path d="M1341 88H1411L1482 44H1412L1341 88Z" fill="#4DAB89"/>
<path d="M1765 88H1694L1623 44H1694L1765 88Z" fill="#6E5D9D"/>
<path d="M1836 88H1765L1694 44H1765L1836 88Z" fill="#243E69"/>
<path d="M1765 44H1694L1623 0H1694L1765 44Z" fill="#243E69"/>
<path d="M1765 44H1836L1907 0H1836L1765 44Z" fill="#4DAB89"/>
<path d="M1694 88H1623L1552 44H1623L1694 88Z" fill="#68C2DE"/>
<path d="M1482 44H1552L1623 0H1553L1482 44Z" fill="#EA983F"/>
<path d="M1128 44H1200L1271 88H1199L1128 44Z" fill="#68C2DE"/>
<path d="M987 88H1057L1128 44H1058L987 88Z" fill="#6E5D9D"/>
<path d="M988 44H1058L1129 0H1059L988 44Z" fill="#4DAB89"/>
<path d="M988 44H918L847 0H917L988 44Z" fill="#6E5D9D"/>
<path d="M636 44H706L777 0H707L636 44Z" fill="#4DAB89"/>
<path d="M918 44H848L777 0H847L918 44Z" fill="#CC5842"/>
<path d="M636 44H566L495 0H565L636 44Z" fill="#4DAB89"/>
<path d="M424 44H354L283 0H353L424 44Z" fill="#6E5D9D"/>
<path d="M141 88H211L282 44H212L141 88Z" fill="#6E5D9D"/>
<path d="M71 88H141L212 44H142L71 88Z" fill="#243E69"/>
<path d="M142 44H212L283 0H213L142 44Z" fill="#243E69"/>
<path d="M988 44H918L847 88H917L988 44Z" fill="#6E5D9D"/>
<path d="M636 44H706L777 88H707L636 44Z" fill="#4DAB89"/>
<path d="M424 44H494L565 88H495L424 44Z" fill="#4DAB89"/>
<path d="M354 44H424L495 88H425L354 44Z" fill="#F2E156"/>
<path d="M282 44H354L425 88H353L282 44Z" fill="#68C2DE"/>
<path d="M918 44H848L777 88H847L918 44Z" fill="#EA983F"/>
<path d="M917 88H987L1058 44H988L917 88Z" fill="#4DAB89"/>
<path d="M1129 0H1199L1270 44H1200L1129 0Z" fill="#6E5D9D"/>
<path d="M1341 0H1411L1482 44H1412L1341 0Z" fill="#4DAB89"/>
<path d="M1128 44L1199 88H1057L1128 44Z" fill="#4DAB89"/>
<path d="M1129 0L1200 44H1058L1129 0Z" fill="#243E69"/>
<path d="M1341 0L1412 44H1270L1341 0Z" fill="#EA983F"/>
<path d="M1623 0L1694 44H1552L1623 0Z" fill="#4DAB89"/>
<path d="M1552 44L1623 88H1481L1552 44Z" fill="#4DAB89"/>
<path d="M1765 44L1694 0H1836L1765 44Z" fill="#6E5D9D"/>
<path d="M1836 88L1765 44H1907L1836 88Z" fill="#EA983F"/>
<path d="M1907 44L1978 88H1836L1907 44Z" fill="#4DAB89"/>
<path d="M777 0L848 44H706L777 0Z" fill="#243E69"/>
<path d="M495 0L566 44H424L495 0Z" fill="#6E5D9D"/>
<path d="M283 0L354 44H212L283 0Z" fill="#CC5842"/>
<path d="M142 44L213 0H71L142 44Z" fill="#4DAB89"/>
<path d="M71 0L142 44H0L71 0Z" fill="#68C2DE"/>
<path d="M7.62939e-06 44L71 88H-71L7.62939e-06 44Z" fill="#6E5D9D"/>
<path d="M71 88L142 44H0L71 88Z" fill="#4DAB89"/>
<path d="M7.62939e-06 44L71 0H-71L7.62939e-06 44Z" fill="#CC5842"/>
<path d="M282 44L353 88H211L282 44Z" fill="#4DAB89"/>
<path d="M636 44L707 0H565L636 44Z" fill="#6E5D9D"/>
<path d="M565 88L636 44H494L565 88Z" fill="#EA983F"/>
<path d="M424 44L495 0H353L424 44Z" fill="#EA983F"/>
<path d="M777 88L848 44H706L777 88Z" fill="#6E5D9D"/>
<path d="M1341 88L1412 44H1270L1341 88Z" fill="#6E5D9D"/>
<path d="M636 44L707 88H565L636 44Z" fill="#243E69"/>
<path d="M988 44L1059 0H917L988 44Z" fill="#243E69"/>
<path d="M1270 44L1341 0H1199L1270 44Z" fill="#243E69"/>
<path d="M1411 88H1481L1552 44H1482L1411 88Z" fill="#F2E156"/>
<path d="M1482 44L1553 0H1411L1482 44Z" fill="#6E5D9D"/>
<path d="M1907 0L1978 44H1836L1907 0Z" fill="#68C2DE"/>
<path d="M2049 44H1978L1907 0H1978L2049 44Z" fill="#F2E156"/>
<path d="M2049 88H1978L1907 44H1978L2049 88Z" fill="#CC5842"/>
</g>
</svg>
